%YAML 1.1
%TAG !u! tag:unity3d.com,2011:
--- !u!114 &11400000
MonoBehaviour:
  m_ObjectHideFlags: 0
  m_CorrespondingSourceObject: {fileID: 0}
  m_PrefabInstance: {fileID: 0}
  m_PrefabAsset: {fileID: 0}
  m_GameObject: {fileID: 0}
  m_Enabled: 1
  m_EditorHideFlags: 0
  m_Script: {fileID: 11500000, guid: 7cccddf08cfcf8d4bb5a17794eec3010, type: 3}
  m_Name: Double Shot Cannon
  m_EditorClassIdentifier: 
  view: {fileID: 8378249075702274987, guid: 2161ba293d545854e928e191bf86eebf, type: 3}
  model:
    WeaponName: Double Shot Cannon
    PlacementType: 0
    Damage: 150
    RateOfFire: 300
    ClipSize: 2
    ReloadTime: 2
  projectile: {fileID: 3720814815026112412, guid: d097c6c4cfb5ad347899d628f22c73ca, type: 3}
  creator: {fileID: 11400000, guid: 3e3ef52af4cd0394d99dcfeb1ba1127a, type: 2}
