%YAML 1.1
%TAG !u! tag:unity3d.com,2011:
--- !u!114 &11400000
MonoBehaviour:
  m_ObjectHideFlags: 0
  m_CorrespondingSourceObject: {fileID: 0}
  m_PrefabInstance: {fileID: 0}
  m_PrefabAsset: {fileID: 0}
  m_GameObject: {fileID: 0}
  m_Enabled: 1
  m_EditorHideFlags: 0
  m_Script: {fileID: 11500000, guid: 7cccddf08cfcf8d4bb5a17794eec3010, type: 3}
  m_Name: Machine Gun
  m_EditorClassIdentifier: 
  view: {fileID: 3654793270432787856, guid: 942cf9568499a774e867bed4470a7d97, type: 3}
  model:
    WeaponName: Machine Gun
    PlacementType: 2
    Damage: 40
    RateOfFire: 180
    ClipSize: 30
    ReloadTime: 2.5
  projectile: {fileID: 3720814815026112412, guid: e34ff14653326684da5f145e82253d63, type: 3}
  creator: {fileID: 11400000, guid: 3e3ef52af4cd0394d99dcfeb1ba1127a, type: 2}
